<?xml version="1.0" encoding="UTF-8" standalone="no"?><svg xmlns="http://www.w3.org/2000/svg" xmlns:xlink="http://www.w3.org/1999/xlink" contentScriptType="application/ecmascript" contentStyleType="text/css" height="485px" preserveAspectRatio="none" style="width:265px;height:485px;" version="1.1" viewBox="0 0 265 485" width="265px" zoomAndPan="magnify"><defs><filter height="300%" id="f19cllqlylcog5" width="300%" x="-1" y="-1"><feGaussianBlur result="blurOut" stdDeviation="2.0"/><feColorMatrix in="blurOut" result="blurOut2" type="matrix" values="0 0 0 0 0 0 0 0 0 0 0 0 0 0 0 0 0 0 .4 0"/><feOffset dx="4.0" dy="4.0" in="blurOut2" result="blurOut3"/><feBlend in="SourceGraphic" in2="blurOut3" mode="normal"/></filter></defs><g><!--entity thingtransaction--><ellipse cx="71" cy="41.5" fill="#F8F8F8" filter="url(#f19cllqlylcog5)" rx="12" ry="12" style="stroke: #383838; stroke-width: 2.0;"/><line style="stroke: #383838; stroke-width: 2.0;" x1="59" x2="83" y1="55.5" y2="55.5"/><text fill="#000000" font-family="sans-serif" font-size="14" lengthAdjust="spacingAndGlyphs" textLength="81" x="30.5" y="70.4951">Transaction</text><!--entity actorapplicant--><ellipse cx="213" cy="18" fill="#F8F8F8" filter="url(#f19cllqlylcog5)" rx="8" ry="8" style="stroke: #383838; stroke-width: 2.0;"/><path d="M213,26 L213,53 M200,34 L226,34 M213,53 L200,68 M213,53 L226,68 " fill="none" filter="url(#f19cllqlylcog5)" style="stroke: #383838; stroke-width: 2.0;"/><text fill="#000000" font-family="sans-serif" font-size="14" lengthAdjust="spacingAndGlyphs" textLength="63" x="181.5" y="87.9951">Applicant</text><!--entity thingstatus--><ellipse cx="36" cy="180" fill="#F8F8F8" filter="url(#f19cllqlylcog5)" rx="8" ry="8" style="stroke: #383838; stroke-width: 2.0;"/><text fill="#000000" font-family="sans-serif" font-size="14" lengthAdjust="spacingAndGlyphs" textLength="44" x="14" y="209.9951">Status</text><!--entity thingtransactioninterface--><path d="M192.5,273 L192.5,297 M192.5,285 L209.5,285 " fill="none" filter="url(#f19cllqlylcog5)" style="stroke: #383838; stroke-width: 2.0;"/><ellipse cx="221.5" cy="285" fill="#7F7F7F" filter="url(#f19cllqlylcog5)" rx="12" ry="12" style="stroke: #383838; stroke-width: 2.0;"/><text fill="#000000" font-family="sans-serif" font-size="14" lengthAdjust="spacingAndGlyphs" textLength="81" x="172.5" y="313.9951">Transaction</text><text fill="#000000" font-family="sans-serif" font-size="14" lengthAdjust="spacingAndGlyphs" textLength="60" x="183" y="330.292">Interface</text><!--entity controlcheckstatus--><ellipse cx="119" cy="410" fill="#F8F8F8" filter="url(#f19cllqlylcog5)" rx="12" ry="12" style="stroke: #383838; stroke-width: 2.0;"/><polygon fill="#383838" points="115,398,121,393,119,398,121,403,115,398" style="stroke: #383838; stroke-width: 1.0;"/><text fill="#000000" font-family="sans-serif" font-size="14" lengthAdjust="spacingAndGlyphs" textLength="75" x="81.5" y="438.9951">Check The</text><text fill="#000000" font-family="sans-serif" font-size="14" lengthAdjust="spacingAndGlyphs" textLength="63" x="87.5" y="455.292">Status Of</text><text fill="#000000" font-family="sans-serif" font-size="14" lengthAdjust="spacingAndGlyphs" textLength="94" x="72" y="471.5889">A Transaction</text><!--link thingtransaction to thingstatus--><path d="M61.1292,86.304 C53.3484,115.3153 43.0657,153.655 38.4392,170.9053 " fill="none" id="thingtransaction-thingstatus" style="stroke: #383838; stroke-width: 1.0;"/><polygon fill="#383838" points="64.4988,73.7402,59.0811,78.4992,61.3902,85.3306,66.808,80.5716,64.4988,73.7402" style="stroke: #383838; stroke-width: 1.0;"/><!--link actorapplicant to thingtransactioninterface--><path d="M213,91.1127 C213,140.8797 213,223.1532 213,268.6685 " fill="none" id="actorapplicant-thingtransactioninterface" style="stroke: #383838; stroke-width: 1.0;"/><!--link thingstatus to controlcheckstatus--><path d="M38.954,189.0578 C49.5234,221.4663 85.8855,332.9621 105.7638,393.9143 " fill="none" id="thingstatus-controlcheckstatus" style="stroke: #383838; stroke-width: 1.0;"/><!--link thingtransaction to controlcheckstatus--><path d="M74.0026,73.5835 C82.007,137.7856 103.9254,313.5892 113.9164,393.7253 " fill="none" id="thingtransaction-controlcheckstatus" style="stroke: #383838; stroke-width: 1.0;"/><!--link thingtransactioninterface to controlcheckstatus--><path d="M190.005,334.0355 C178.1808,350.7655 163.5856,371.4161 150.709,389.6351 " fill="none" id="thingtransactioninterface-controlcheckstatus" style="stroke: #383838; stroke-width: 1.0;"/><polygon fill="#383838" points="147.8189,393.7243,156.2799,388.6834,150.7047,389.6412,149.7469,384.066,147.8189,393.7243" style="stroke: #383838; stroke-width: 1.0;"/><!--
@startuml
	skinparam defaultTextAlignment center
	skinparam monochrome true

	entity "Transaction" as thingtransaction
	actor "Applicant" as actorapplicant
	circle "Status" as thingstatus
	boundary "Transaction\nInterface" as thingtransactioninterface #grey
	control "Check The\nStatus Of\nA Transaction" as controlcheckstatus

	thingtransaction *- - thingstatus
	actorapplicant - - - thingtransactioninterface
	thingstatus - - - controlcheckstatus
	thingtransaction - - - controlcheckstatus
	thingtransactioninterface - -> controlcheckstatus

@enduml

PlantUML version 1.2018.10(Sun Aug 26 05:02:59 NZST 2018)
(GPL source distribution)
Java Runtime: Java(TM) SE Runtime Environment
JVM: Java HotSpot(TM) 64-Bit Server VM
Java Version: 1.8.0_181-b13
Operating System: Linux
OS Version: 4.15.0-48-generic
Default Encoding: UTF-8
Language: en
Country: NZ
--></g></svg>